{
  "heartbeat": {
    "timetolive": 20000,
    "interval": 2000
  },
  "client-connection": {
    "allocation": "auto",
    "ip": "172.16.101.27",
    "port": 8080,
    "_comment":  "manuel -> from userinput, auto -> from config"
  }
}